digraph "Cuboid"
{
  edge [fontname="Helvetica",fontsize="10",labelfontname="Helvetica",labelfontsize="10"];
  node [fontname="Helvetica",fontsize="10",shape=record];
  Node2 [label="Cuboid",height=0.2,width=0.4,color="black", fillcolor="grey75", style="filled", fontcolor="black"];
  Node3 -> Node2 [dir="back",color="midnightblue",fontsize="10",style="solid",fontname="Helvetica"];
  Node3 [label="Block",height=0.2,width=0.4,color="black", fillcolor="white", style="filled",URL="$class_block.html",tooltip="Klasa Bryła odwzorowuje zachowanie kazdej bryly opisanej w zadaniu programowym. "];
  Node4 -> Node3 [dir="back",color="darkorchid3",fontsize="10",style="dashed",label=" translation" ,fontname="Helvetica"];
  Node4 [label="Vector\< double, 3 \>",height=0.2,width=0.4,color="black", fillcolor="white", style="filled",URL="$class_vector.html"];
}
