digraph "Block"
{
  edge [fontname="Helvetica",fontsize="10",labelfontname="Helvetica",labelfontsize="10"];
  node [fontname="Helvetica",fontsize="10",shape=record];
  Node2 [label="Block",height=0.2,width=0.4,color="black", fillcolor="grey75", style="filled", fontcolor="black"];
  Node3 -> Node2 [dir="back",color="darkorchid3",fontsize="10",style="dashed",label=" translation" ];
  Node3 [label="Vector\< double, 3 \>",height=0.2,width=0.4,color="black", fillcolor="white", style="filled",URL="$class_vector.html"];
}
